﻿{
  "version": "1.0.0-*",

  "dependencies": {
    "NETStandard.Library": "1.6.0",
    "QAApplicationProj": "1.0.0-*",
    "xunit": "2.1.0",
    "xunit.runner.visualstudio": "2.1.0"
  },

  "frameworks": {
    "net461": {
      
    }
  }
}
